Chapter 9 Data Pre Processing | Predictive Learning in R
…
names(processed_mtcars)

##  [1] "dim"               "bc"                "yj"               
##  [4] "et"                "invHyperbolicSine" "mean"             
##  [7] "std"               "ranges"            "rotation"         
## [10] "method"            "thresh"            "pcaComp"          
## [13] "numComp"           "ica"               "wildcards"        
## [16] "k"                 "knnSummary"        "bagImp"           
## [19] "median"            "data"              "rangeBounds"

The processed data can be accessed as follows. Note that it is also scaled and centered.

processed_mtcars$data

## # A tibble: 26 x 10
##       mpg    cyl    disp     hp   drat   qsec     vs     am   gear   carb
##     <dbl>  <dbl>   <dbl>  <dbl>  <dbl>  <dbl>  <dbl>  <dbl>  <dbl>  <dbl>
##  1  0.151 -0.105 -0.571  -0.535  0.568 -0.777 -0.868  1.19   0.424  0.627
##  2  0.151 -0.105 -0.571  -0.535  0.568 -0.464 -0.868  1.19   0.424  0.627
##  3  0.450 -1.22  -0.990  -0.783  0.474  0.426  1.12   1.19   0.424 -1.12 
##  4  0.217 -0.105  0.220  -0.535 -0.966  0.890  1.12  -0.814 -0.932 -1.12 
##  5 -0.231  1.01   1.04    0.413 -0.835 -0.464 -0.868 -0.814 -0.932 -0.537
##  6 -0.330 -0.105 -0.0462 -0.608 -1.56   1.33   1.12  -0.814 -0.932 -1.12 
##  7 -0.961  1.01   1.04    1.43  -0.723 -1.12  -0.868 -0.814 -0.932  0.627
##  8  0.715 -1.22  -0.678  -1.24   0.175  1.20   1.12  -0.814  0.424 -0.537
##  9  0.450 -1.22  -0.726  -0.754  0.605  2.83   1.12  -0.814  0.424 -0.537
## 10 -0.380 -0.105 -0.509  -0.345  0.605  0.588  1.12  -0.814  0.424  0.627
## # … with 16 more rows
…
